capital = 219

oob = "SOV_1936"
if = {
	limit = { has_dlc = "Man the Guns" }
		set_naval_oob = "SOV_1936_naval_mtg"
	else = {
		set_naval_oob = "SOV_1936_naval_legacy"
	}
}

set_country_flag=host

add_intel = {
	target = USA
	civilian_intel = 200
	army_intel = 200
	navy_intel = 200
	airforce_intel = 200
}
add_intel = {
	target = ENG
	civilian_intel = 200
	army_intel = 200
	navy_intel = 200
	airforce_intel = 200
}
add_intel = {
	target = RAJ
	civilian_intel = 200
	army_intel = 200
	navy_intel = 200
	airforce_intel = 200
}
add_intel = {
	target = CAN
	civilian_intel = 200
	army_intel = 200
	navy_intel = 200
	airforce_intel = 200
}
add_intel = {
	target = FRA
	civilian_intel = 200
	army_intel = 200
	navy_intel = 200
	airforce_intel = 200
}
add_intel = {
	target = SAF
	civilian_intel = 200
	army_intel = 200
	navy_intel = 200
	airforce_intel = 200
}
add_intel = {
	target = AST
	civilian_intel = 200
	army_intel = 200
	navy_intel = 200
	airforce_intel = 200
}
add_intel = {
	target = NZL
	civilian_intel = 200
	army_intel = 200
	navy_intel = 200
	airforce_intel = 200
}

set_research_slots = 3
navy_experience = 0
add_timed_idea = { idea = airandnavy_idea days = 1980 }
# Starting tech
set_technology = {
	heavy_fighter1 = 1
	forgotgwtank = 1
	forgotearly_fighter = 1
	forgotearly_bomber = 1
	forgotearly_ship_hull_light = 1
	forgotearly_ship_hull_cruiser = 1
	forgotearly_ship_hull_heavy = 1
	forgotearly_ship_hull_submarine = 1
	airfield_construction = 1
	infantry_weapons = 1
	infantry_weapons1 = 1
	tech_recon = 1
	improved_light_tank = 1
	basic_heavy_tank = 1
	tech_support = 1
	tech_engineers = 1
	tech_military_police = 1
	tech_mountaineers = 1
	motorised_infantry = 1
	paratroopers = 1
	gw_artillery = 1
	interwar_antiair = 1
	interwar_antitank = 1
	gwtank = 1
	basic_light_tank = 1  # PLACEHOLDER
	#basic_heavy_tank = 1  # PLACEHOLDER
	#basic_medium_tank = 1 # PLACEHOLDER
	CAS1 = 1
	early_fighter = 1
	fighter1 = 1
	early_bomber = 1
	strategic_bomber1 = 1
	naval_bomber1 = 1
	mass_assault = 1
	fleet_in_being = 1
	fuel_silos = 1
	fuel_refining = 1
	air_superiority = 1
	forward_interception = 1
	basic_light_td = 1
	improved_light_td = 1	
}

add_opinion_modifier = { target = SPR modifier = embargo }
add_opinion_modifier = { target = SPR modifier = sanctions_relations }
add_opinion_modifier = { target = SPR modifier = large_decrease }
add_opinion_modifier = { target = SPR modifier = hostile_status }
if = {
	limit = { not = { has_dlc = "Man the Guns" } }
	set_technology = {
		early_submarine = 1
		basic_submarine = 1
		early_destroyer = 1
		early_light_cruiser = 1
		early_heavy_cruiser = 1
		early_battleship = 1
		early_battlecruiser = 1
		transport = 1
	}
}

if = {
	limit = {
		has_dlc = "La Resistance"
	}
	set_technology = { armored_car1 = 1	}
}



if = {
	limit = { has_dlc = "Man the Guns" }
	set_technology = {
		early_ship_hull_light = 1
		basic_ship_hull_light = 1
		early_ship_hull_submarine = 1
		basic_ship_hull_submarine = 1
		early_ship_hull_cruiser = 1
		early_ship_hull_heavy = 1
		basic_battery = 1
		basic_light_battery = 1
		basic_torpedo = 1
		basic_depth_charges = 1
		basic_secondary_battery = 1
		mtg_transport = 1
	}
}



set_convoys = 300
set_stability = 0.55
set_war_support = 0.8
add_equipment_to_stockpile = {
         type = artillery_equipment_1
         amount = 20500
         producer = SOV
}  
add_equipment_to_stockpile = {
         type = support_equipment
         amount = 9500
         producer = SOV
} 
add_equipment_to_stockpile = {
         type = infantry_equipment_0
         amount = 129000
         producer = SOV
} 
add_equipment_to_stockpile = {
         type = infantry_equipment_1
         amount = 256000
         producer = SOV
} 
add_equipment_to_stockpile = {
         type = motorized_equipment_1
         amount = 8000
         producer = SOV
}
add_equipment_to_stockpile = {
         type = heavy_tank_equipment_1
         amount = 1000
         producer = SOV
} 
add_equipment_to_stockpile = {
         type = anti_air_equipment_1
         amount = 12500
         producer = SOV
} 
add_equipment_to_stockpile = {
         type = anti_tank_equipment_1
         amount = 20000
         producer = SOV
} 
add_equipment_to_stockpile = {
         type = light_tank_equipment_1
         amount = 4500
         producer = SOV
} 
add_equipment_to_stockpile = {
         type = light_tank_equipment_2
         amount = 3500
         producer = SOV
}




add_equipment_to_stockpile = {
         type = fighter_equipment_0
         amount = 1400
         producer = SOV
}
add_equipment_to_stockpile = {
         type = fighter_equipment_0
         amount = 1200
         producer = SOV
}
add_equipment_to_stockpile = {
         type = fighter_equipment_0
         amount = 400
         producer = SOV
}
add_equipment_to_stockpile = {
         type = tac_bomber_equipment_0
         amount = 400
         producer = SOV
}
add_equipment_to_stockpile = {
         type = strat_bomber_equipment_1
         amount = 200
         producer = SOV
}
add_equipment_to_stockpile = {
         type = nav_bomber_equipment_1
         amount = 200
         producer = SOV
} 
add_equipment_to_stockpile = {
         type = CAS_equipment_1
         amount = 500
         producer = SOV
}

set_politics = {
	ruling_party = communism
	last_election = "1933.7.1"
	election_frequency = 48
	elections_allowed = no
}

set_popularities = {
    democratic = 10.1
    fascism = 0
    communism = 89.9
}

create_faction = Comintern
add_to_faction = SOV

add_ideas = {
	trotskyite_plot
	soviet_closed_market
	production_targets_idea
	closed_economy
	general_winter_idea
	gaz 
}

create_country_leader = {
	name = "Joseph Stalin"
	desc = "POLITICS_JOSEPH_STALIN_DESC"
	picture = "Portrait_Soviet_Joseph_Stalin.dds"
	expire = "1953.3.1"
	ideology = stalinism
}

create_country_leader = {
	name = "Konstantin Rodzaevsky"
	desc = "POLITICS_KONSTANTIN_RODZAEVSKY_DESC"
	picture = "Portrait_Soviet_Konstantin_Rodzaevsky.dds"
	expire = "1953.3.1"
	ideology = fascism_ideology
}

create_country_leader = {
	name = "Alexander Fyodorovich Kerensky"
	desc = "POLITICS_ALEXANDER_FYODOROVICH_KERENSKY_DESC"
	picture = "Portrait_Soviet_Generic_1.dds"
	expire = "1953.3.1"
	ideology = socialism
}

#create_field_marshal = {
#	name = "Georgy Zhukov"
#	id = 410
#		picture = "Portrait_Soviet_Gregory_Zhukov.dds"
#	traits = {  armor_officer media_personality brilliant_strategist harsh_leader politically_connected panzer_leader trait_engineer}
#	skill = 6

	
#	attack_skill = 6
#	defense_skill = 4
#	planning_skill = 4
#	logistics_skill = 5
#}

#create_corps_commander = {
#	name = "Konstantin Rokossovsky"
#	id = 402
#		picture = "Portrait_Soviet_Konstantin_Rokossovsky.dds"
#	traits = {  armor_officer trait_cautious brilliant_strategist harsh_leader panzer_leader  war_hero}
#	skill = 6
	
#	attack_skill =6
#	defense_skill = 5
#	planning_skill = 5
#	logistics_skill = 3
#}

#create_corps_commander = {
#	name = "Aleksandr Vasilevsky"
#	id = 407
#		picture = "Portrait_Soviet_Aleksandr_Vasilevsky.dds"
#	traits = { armor_officer politically_connected trait_cautious harsh_leader skilled_staffer panzer_leader organizer}
#	skill = 6

	
#	attack_skill = 4
#	defense_skill = 3
#	planning_skill = 8
#	logistics_skill = 4
#}

#create_field_marshal = {
#	name = "Boris Shaposhnikov"
#		picture = "Portrait_Soviet_Boris_Shaposhnikov.dds"
#	traits = { trait_cautious career_officer old_guard infantry_officer organizer defensive_doctrine politically_connected organizer}
#	skill = 5
	
#	attack_skill = 2
#	defense_skill = 4
#	planning_skill = 3
#	logistics_skill = 7
#}

#create_corps_commander = {
#	name = "Nikolai Vatutin"
#		picture = "Portrait_Soviet_Nikolai_Fyodorovich_Vatutin.dds"
#	traits = { infantry_officer trait_reckless trait_engineer infantry_leader trickster }
#	skill = 4
#	
#	attack_skill = 3
#	defense_skill = 4
#	planning_skill = 3
#	logistics_skill = 3
#}

#create_corps_commander = {
#	name = "Ivan Konev"
#	id = 408
#		picture = "Portrait_Soviet_Ivan_Konev.dds"
#	traits = { armor_officer harsh_leader politically_connected panzer_leader trait_reckless ranger }
#	skill = 5


	
#	attack_skill = 3
#	defense_skill = 7
#	planning_skill = 2
#	logistics_skill = 4
#}

create_corps_commander = {
	name = "Semyon Timoshenko"
	id = 404
		picture = "Portrait_Soviet_Semyon_Timoshenko.dds"
	traits = { cavalry_officer politically_connected career_officer trickster hill_fighter cavalry_leader }
	skill = 4


	
	attack_skill = 5
	defense_skill = 3
	planning_skill = 3
	logistics_skill = 2
}

create_field_marshal = {
	name = "Kliment Voroshilov"
	id = 405
		picture = "Portrait_Soviet_Kliment_Voroshilov.dds"
	traits = {  old_guard politically_connected inflexible_strategist harsh_leader defensive_doctrine}
	skill = 4


	
	attack_skill = 3
	defense_skill = 2
	planning_skill = 4
	logistics_skill = 3
}

create_field_marshal = {
	name = "Semyon Budyonny"
		picture = "Portrait_Soviet_Semyon_Budyonny.dds"
	traits = {  winter_specialist old_guard politically_connected inflexible_strategist trait_reckless skilled_staffer  }
	skill = 3

	
	attack_skill = 1
	defense_skill = 5
	planning_skill = 1
	logistics_skill = 3
}

create_corps_commander = {
	name = "Ivan Chernyakhovsky"
		picture = "Portrait_Soviet_Ivan_Chernyakhovsky.dds"
	traits = {  winter_specialist armor_officer panzer_leader harsh_leader trait_reckless }
	skill = 3

	
	attack_skill = 3
	defense_skill = 4
	planning_skill = 2
	logistics_skill = 2
}

create_corps_commander = {
	name = "Issa Pliyev"
		picture = "Portrait_Soviet_Issa_Pliyev.dds"
	traits = {  cavalry_officer cavalry_leader harsh_leader trickster desert_fox }
	skill = 3

	
	attack_skill = 4
	defense_skill = 2
	planning_skill = 1
	logistics_skill = 3
}

create_corps_commander = {
	name = "Leonid Govorov"
		picture = "Portrait_Soviet_Leonid_Govorov.dds"
	traits = {   skilled_staffer organizer urban_assault_specialist infantry_leader trait_cautious}
	skill = 3
	
	attack_skill = 2
	defense_skill = 3
	planning_skill = 2
	logistics_skill = 3
}

create_field_marshal = {
	name = "Grigory Kulik"
		picture = "Portrait_Soviet_Grigory_Kulik.dds"
	traits = {  old_guard career_officer politically_connected inflexible_strategist trait_cautious }
	skill = 3
	attack_skill = 1
	defense_skill = 5
	planning_skill = 2
	logistics_skill = 3
}

create_corps_commander = {
	name = "Kirill Meretskov"
		picture = "Portrait_Soviet_Kirill_Meretskov.dds"
	traits = {  trait_reckless infantry_officer infantry_leader harsh_leader }
	skill = 2
	

	
	attack_skill = 4
	defense_skill = 1
	planning_skill = 1
	logistics_skill = 1
}

#create_corps_commander = {
#	name = "Filipp Golikov"
#		picture = "Portrait_Soviet_Filipp_Golikov.dds"
#	traits = { career_officer brilliant_strategist harsh_leader panzer_leader armor_officer trait_reckless }
#	skill = 4
#	
#	attack_skill = 3
#	defense_skill = 4
#	planning_skill = 3
#	logistics_skill = 1
#}

create_corps_commander = {
	name = "Andrey Yeryomenko"
		picture = "Portrait_Soviet_Andrey_Yeryomenko.dds"
	traits = {  cavalry_officer trait_reckless panzer_leader swamp_fox}
	skill = 2

	
	attack_skill = 1
	defense_skill = 4
	planning_skill = 1
	logistics_skill = 4
}

create_field_marshal = {
	name = "Georgiy Zakharov"
		picture = "Portrait_Soviet_Georgiy_Zakharov.dds"
	traits = {  career_officer politically_connected infantry_leader organizer old_guard }
	skill = 3

	
	attack_skill = 2
	defense_skill = 2
	planning_skill = 1
	logistics_skill = 5
}

create_corps_commander = {
	name = "Yakov Cherevichenko"
		picture = "Portrait_Soviet_Yakov_Cherevichenko.dds"
	traits = {  cavalry_officer trait_mountaineer cavalry_leader inflexible_strategist}
	skill = 3
	
	attack_skill = 3
	defense_skill = 2
	planning_skill = 2
	logistics_skill = 3
}

create_corps_commander = {
	name = "Max Reyter"
		picture = "Portrait_Soviet_Max_Andreyevich.dds"
	traits = {  career_officer old_guard infantry_leader trait_reckless }
	skill = 2

	
	attack_skill = 3
	defense_skill = 1
	planning_skill = 2
	logistics_skill = 2
}
#create_corps_commander = {
#	name = "Nikandr Chibisov"
#		picture = "Portrait_Soviet_Nikandr_Yevlampyevich_Chibisov.dds"
#	traits = { trickster war_hero urban_assault_specialist infantry_leader infantry_officer harsh_leader }
#	skill = 4

	
#	attack_skill = 5
#	defense_skill = 2
#	planning_skill = 1
#	logistics_skill = 4
#}
#create_corps_commander = {
#	name = "Vasily Kuznetsov"
#		picture = "Portrait_Soviet_Vasily_Kuznetsov.dds"
#	traits = { commando infantry_officer politically_connected infantry_leader media_personality war_hero swamp_fox brilliant_strategist }
#	skill = 5
	
#	attack_skill = 5
#	defense_skill = 5
#	planning_skill = 3
#	logistics_skill = 3
#}

#create_corps_commander = {
	#name = "Andrey Vlasov"
#		picture = "Portrait_Soviet_Andrey_Vlasov.dds"
#	traits = {  infantry_officer skilled_staffer organizer trait_engineer career_officer}
#	id = 412
#	skill = 4
	
#	attack_skill = 4
#	defense_skill = 3
#	planning_skill = 1
#	logistics_skill = 5
#}

#create_corps_commander = {
#	name = "Ivan Fedyuninsky"
#		picture = "Portrait_Soviet_Ivan_Fedyuninsky.dds"
#	traits = { infantry_officer war_hero harsh_leader trait_reckless hill_fighter }
#	skill = 4
	
#	attack_skill = 5
#	defense_skill = 4
#	planning_skill = 2
#	logistics_skill = 2
#}

#create_corps_commander = {
#	name = "Maksim Purkayev (Suggested for INF)"
#		picture = "Portrait_Soviet_Maksim_Purkayev.dds"
#	traits = { career_officer ranger trait_reckless infantry_leader inflexible_strategist  }
#	skill = 4

	
#	attack_skill = 4
#	defense_skill = 5
#	planning_skill = 2
#	logistics_skill = 2
#}
create_corps_commander = {
	name = "Kuzma Galitsky"
		picture = "Portrait_Soviet_Kuzma_Galitsky.dds"
	traits = {  infantry_officer ranger hill_fighter trait_reckless harsh_leader }
	skill = 1 

	
	attack_skill = 1
	defense_skill = 1
	planning_skill = 1
	logistics_skill = 1
}
#create_corps_commander = {
#	name = "Markian Popov"
#		picture = "Portrait_Soviet_Matkian_Popov.dds"
#	traits = {  infantry_officer brilliant_strategist urban_assault_specialist trait_engineer}
#	skill = 5

	
#	attack_skill = 6
#	defense_skill = 4
#	planning_skill = 3
#	logistics_skill = 3
#}

#create_corps_commander = {
#	name = "Nikolai Berzarin"
#		picture = "Portrait_Soviet_Nikolai_Berzarin.dds"
#	traits = { infantry_officer trait_mountaineer skilled_staffer old_guard trait_cautious }
#	skill = 5
	
#	attack_skill = 6
#	defense_skill = 4
#	planning_skill = 2
#	logistics_skill = 4
#}

#create_corps_commander = {
#	name = "Alexander Gorbatov"
#		picture = "Portrait_Soviet_Alexander_Gorbatov.dds"
#	traits = { career_officer cavalry_officer harsh_leader trait_reckless infantry_leader }
#	skill = 5
	
#	attack_skill = 4
#	defense_skill = 4
#	planning_skill = 4
#	logistics_skill = 4
#}

#create_field_marshal = {
#	name = "Kirill Moskalenko"
#		picture = "Portrait_Soviet_Kirill_Moskalenko.dds"
#	traits = {  brilliant_strategist infantry_leader old_guard career_officer ranger skilled_staffer}
#	skill = 6
	
#	attack_skill = 6
#	defense_skill = 3
#	planning_skill = 6
#	logistics_skill = 1
#}

#create_corps_commander = {
#	name = "Dmitry Lelyushenko"
#		picture = "Portrait_Soviet_Dmitri_Danilovich_Lelyushenko.dds"
#	traits = {armor_officer trait_reckless panzer_leader harsh_leader ranger trickster  }
#	skill = 5
	
#	attack_skill = 5
#	defense_skill = 4
#	planning_skill = 6
#	logistics_skill = 1
#}

create_corps_commander = {
	name = "Andrei Grechko"
		picture = "Portrait_Soviet_Andrei_Antonovich_Grechko.dds"
	traits = {  cavalry_officer hill_fighter trait_mountaineer trickster infantry_leader harsh_leader }
	skill = 2


	
	attack_skill = 2
	defense_skill = 2
	planning_skill = 2
	logistics_skill = 1
}

#create_corps_commander = {
#	name = "Rodion Malinovsky"
#		picture = "Portrait_Soviet_Rodion_Malinovsky.dds"
#	traits = { career_officer old_guard trait_cautious politically_connected }
#	skill = 5

#	
#	attack_skill = 3
#	defense_skill = 3
#	planning_skill = 2
#	logistics_skill = 8
#}

#create_field_marshal = {
#	name = "Vasily Chuikov"
#		picture = "Portrait_Soviet_Vasily_Chuikov.dds"
#	traits = { brilliant_strategist career_officer infantry_leader panzer_leader trait_engineer urban_assault_specialist trait_cautious}
#	skill = 4


#	attack_skill = 4
#	defense_skill = 2
#	planning_skill = 3
#	logistics_skill = 4
#}


create_navy_leader = {
	name = "Filipp Oktyabrskiy"
		picture = "Portrait_Soviet_Filipp_Oktyabrsky.dds"
	traits = { old_guard superior_tactician fly_swatter ironside green_water_expert }
	skill = 6
	attack_skill = 5
	defense_skill = 5
	maneuvering_skill = 6
	coordination_skill = 3
}

create_navy_leader = {
	name = "Sergey Gorshkov"
	id = 411
		picture = "Portrait_Soviet_Sergey_Gorshkov.dds"
	traits = { bold fleet_protector blockade_runner green_water_expert destroyer_leader }
	skill = 5
	attack_skill = 3
	defense_skill = 5
	maneuvering_skill = 8
	coordination_skill = 6
}

# Arrested in '41
create_navy_leader = {
	name = "Gordey Levchenko"
	id = 406
		picture = "Portrait_Soviet_Gordey_Levchenko.dds"
	traits = { seawolf blockade_runner green_water_expert }
	skill = 5
	attack_skill = 2
	defense_skill = 4
	maneuvering_skill = 5
	coordination_skill = 4
}

create_navy_leader = {
	name = "Arseniy Golovko"
	id = 409
		picture = "Portrait_Soviet_Arseniy_Golovko.dds"
	traits = { superior_tactician spotter arctic_water_expert blue_water_expert }
	skill = 4
	attack_skill = 3
	defense_skill = 4
	maneuvering_skill = 3
	coordination_skill = 3
}

create_navy_leader = {
	name = "Vladimir Kasatonov"
	id = 403
		picture = "Portrait_Soviet_Vladimir_Kasatonov.dds"
	traits = { seawolf superior_tactician spotter inshore_fighter }
	skill = 6
	attack_skill = 6
	defense_skill = 4
	maneuvering_skill = 6
	coordination_skill = 3
}
### VARIANTS ###
# 1936 Start #
if = {
	limit = { not = { has_dlc = "Man the Guns" } }
	### Ship Variants ###
	create_equipment_variant = {
		name = "Series I Debakrist"
		type = submarine_1
		upgrades = {
			ship_reliability_upgrade = 1
			sub_engine_upgrade = 1
			sub_stealth_upgrade = 1
			sub_torpedo_upgrade = 1
		}
		obsolete = yes
	}
	create_equipment_variant = {
		name = "Series IX Srednyaya"
		type = submarine_2
		upgrades = {
			ship_reliability_upgrade = 1
			sub_engine_upgrade = 1
			sub_stealth_upgrade = 1
			sub_torpedo_upgrade = 1
		}
	}
	create_equipment_variant = {
		name = "Leningrad & Minsk Class"
		type = destroyer_1
		upgrades = {
			ship_torpedo_upgrade = 3
			destroyer_engine_upgrade = 3
			ship_ASW_upgrade = 3
			ship_anti_air_upgrade = 3
		}
	}
}
if = {
	limit = { has_dlc = "Man the Guns" }
	# Submarines #
	create_equipment_variant = {			
		name = "AG Class"
		type = ship_hull_submarine_1
		name_group = SOV_SS_SHCHUKA
		parent_version = 0
		modules = {
			fixed_ship_torpedo_slot = ship_torpedo_sub_1
			fixed_ship_engine_slot = sub_ship_engine_1
			rear_1_custom_slot = empty
		}
		obsolete = yes
	}
	create_equipment_variant = {
		name = "Series I Debakrist"			# represents Debakrist, B class, L-55 sub
		type = ship_hull_submarine_1
		name_group = SOV_SS_SHCHUKA
		parent_version = 0
		modules = {
			fixed_ship_torpedo_slot = ship_torpedo_sub_1
			fixed_ship_engine_slot = sub_ship_engine_1
			rear_1_custom_slot = ship_torpedo_sub_1
		}
		obsolete = yes
	}
	create_equipment_variant = {
		name = "Series II Leninets"				# represents Leninets series II, XI
		type = ship_hull_submarine_2
		name_group = SOV_SS_LENINETS
		parent_version = 0
		modules = {
			fixed_ship_torpedo_slot = ship_torpedo_sub_1
			fixed_ship_engine_slot = sub_ship_engine_1
			rear_1_custom_slot = empty
		}
	}
	create_equipment_variant = {
		name = "Series V Shchuka"				# represents Shchuka series III, V, V-bis, V-bis-2
		type = ship_hull_submarine_1
		name_group = SOV_SS_SHCHUKA
		parent_version = 0
		modules = {
			fixed_ship_torpedo_slot = ship_torpedo_sub_2
			fixed_ship_engine_slot = sub_ship_engine_1
			rear_1_custom_slot = empty
		}
		obsolete = yes
	}
	create_equipment_variant = {
		name = "Series IX Srednyaya"				# 'Stalinets', series IX, IX-bis, IX-bis-2 and P-class
		type = ship_hull_submarine_2
		name_group = SOV_SS_STALINETS
		parent_version = 0
		modules = {
			fixed_ship_torpedo_slot = ship_torpedo_sub_2
			fixed_ship_engine_slot = sub_ship_engine_2
			rear_1_custom_slot = empty
		}
	}
	create_equipment_variant = {
		name = "Series X Shchuka"				
		type = ship_hull_submarine_1
		name_group = SOV_SS_SHCHUKA
		parent_version = 0
		modules = {
			fixed_ship_torpedo_slot = ship_torpedo_sub_2
			fixed_ship_engine_slot = sub_ship_engine_2
			rear_1_custom_slot = empty
		}
	}
	# Destroyers #
	create_equipment_variant = {
		name = "Orfey Class"						# represents Yakov Sverdlov, Frunze, and Orfey classes
		type = ship_hull_light_1
		name_group = SOV_DD_HISTORICAL
		parent_version = 0
		modules = {
			fixed_ship_battery_slot = ship_light_battery_1
			fixed_ship_anti_air_slot = empty
			fixed_ship_fire_control_system_slot = ship_fire_control_system_0
			fixed_ship_radar_slot = empty
			fixed_ship_engine_slot = light_ship_engine_1
			fixed_ship_torpedo_slot = ship_torpedo_1
			mid_1_custom_slot = ship_torpedo_1
			rear_1_custom_slot = empty
		}
		obsolete = yes
	}
	create_equipment_variant = {
		name = "Fidonisi Class"						# represents Fidonisi and Izyaslav classes
		type = ship_hull_light_1
		name_group = SOV_DD_HISTORICAL
		parent_version = 0
		modules = {
			fixed_ship_battery_slot = ship_light_battery_1
			fixed_ship_anti_air_slot = empty
			fixed_ship_fire_control_system_slot = ship_fire_control_system_0
			fixed_ship_radar_slot = empty
			fixed_ship_engine_slot = light_ship_engine_1
			fixed_ship_torpedo_slot = ship_torpedo_1
			mid_1_custom_slot = ship_torpedo_1
			rear_1_custom_slot = ship_depth_charge_1
		}
		obsolete = yes
	}
	create_equipment_variant = {
		name = "Leningrad & Minsk Class"				
		type = ship_hull_light_2
		name_group = SOV_DD_HISTORICAL
		parent_version = 0
		modules = {
			fixed_ship_battery_slot = ship_light_battery_2
			fixed_ship_anti_air_slot = ship_anti_air_1
			fixed_ship_fire_control_system_slot = ship_fire_control_system_0
			fixed_ship_radar_slot = empty
			fixed_ship_engine_slot = light_ship_engine_2
			fixed_ship_torpedo_slot = ship_torpedo_1
			mid_1_custom_slot = empty
			rear_1_custom_slot = ship_depth_charge_1
		}
	}
	create_equipment_variant = {
		name = "Bug Class"					# minelayer
		type = ship_hull_light_1
		name_group = SOV_MINELAYERS_HISTORICAL
		parent_version = 0
		modules = {
			fixed_ship_battery_slot = ship_light_battery_1
			fixed_ship_anti_air_slot = empty
			fixed_ship_fire_control_system_slot = ship_fire_control_system_0
			fixed_ship_radar_slot = empty
			fixed_ship_engine_slot = light_ship_engine_2
			fixed_ship_torpedo_slot = empty
			mid_1_custom_slot = empty
			rear_1_custom_slot = empty
		}
	}
	# Light Cruisers #
	create_equipment_variant = {
		name = "Komintern Class"
		type = ship_hull_cruiser_1
		name_group = SOV_CL_HISTORICAL
		parent_version = 0
		modules = {
			fixed_ship_battery_slot = ship_light_medium_battery_1
			fixed_ship_anti_air_slot = empty
			fixed_ship_fire_control_system_slot = ship_fire_control_system_0
			fixed_ship_radar_slot = empty
			fixed_ship_engine_slot = cruiser_ship_engine_1
			mid_1_custom_slot = ship_light_medium_battery_1
			mid_2_custom_slot = empty
			rear_1_custom_slot = empty
		}
		obsolete = yes
	}
	create_equipment_variant = {
		name = "Chervona Ukraina Class"
		type = ship_hull_cruiser_1
		name_group = SOV_CL_HISTORICAL
		parent_version = 0
		modules = {
			fixed_ship_battery_slot = ship_light_medium_battery_1
			fixed_ship_anti_air_slot = ship_anti_air_1
			fixed_ship_fire_control_system_slot = ship_fire_control_system_0
			fixed_ship_radar_slot = empty
			fixed_ship_engine_slot = cruiser_ship_engine_1
			mid_1_custom_slot = ship_light_medium_battery_1
			mid_2_custom_slot = ship_torpedo_1
			rear_1_custom_slot = empty
		}
	}
	create_equipment_variant = {
		name = "Marti Class"
		type = ship_hull_cruiser_1				# minelayer
		name_group = SOV_MINELAYERS_HISTORICAL
		parent_version = 0
		modules = {
			fixed_ship_battery_slot = ship_light_medium_battery_1
			fixed_ship_anti_air_slot = ship_anti_air_1
			fixed_ship_fire_control_system_slot = ship_fire_control_system_0
			fixed_ship_radar_slot = empty
			fixed_ship_engine_slot = cruiser_ship_engine_1
			mid_1_custom_slot = empty
			mid_2_custom_slot = empty
			rear_1_custom_slot = empty
		}
	}
	# Battleships #
	create_equipment_variant = {
		name = "Marat Class"					
		type = ship_hull_heavy_1
		name_group = SOV_BB_HISTORICAL
		parent_version = 0
		modules = {
			fixed_ship_battery_slot = ship_heavy_battery_1
			fixed_ship_anti_air_slot = ship_anti_air_1
			fixed_ship_fire_control_system_slot = ship_fire_control_system_0
			fixed_ship_radar_slot = empty
			fixed_ship_engine_slot = heavy_ship_engine_1
			fixed_ship_secondaries_slot = ship_secondaries_1
			fixed_ship_armor_slot = ship_armor_bb_1
			front_1_custom_slot = ship_heavy_battery_1
			mid_1_custom_slot = empty
			mid_2_custom_slot = empty
			rear_1_custom_slot = empty
		}
	}
}
 create_equipment_variant = {
 	name = "I-15bis"
 	type = fighter_equipment_0
 	upgrades = {
 		plane_gun_upgrade = 3
 		plane_range_upgrade = 5
 		plane_engine_upgrade = 5
 		plane_reliability_upgrade = 5
 	}
 	obsolete = yes
 }
 create_equipment_variant = {
 	name = "I-153"
 	type = fighter_equipment_0
 	upgrades = {
 		plane_gun_upgrade = 5
 		plane_range_upgrade = 5
 		plane_engine_upgrade = 5
 		plane_reliability_upgrade = 5
 	}
 }
 create_equipment_variant = {
 	name = "T-26 modle. 1931"
 	type = light_tank_equipment_1
 	upgrades = {
 
 	}
 	obsolete = yes
 }
 create_equipment_variant = {
 	name = "T-26 modle. 1933"
 	type = light_tank_equipment_1
 	upgrades = {
 		tank_gun_upgrade = 5
 		tank_armor_upgrade = 3
 		tank_reliability_upgrade = 3
 	}
 	obsolete = yes
 }

 create_equipment_variant = {
 	name = "T-27"
 	type = light_tank_equipment_1
 	upgrades = {
 		tank_reliability_upgrade = 3
 	}
 	obsolete = yes
 }
 create_equipment_variant = {
 	name = "BT.2"
 	type = light_tank_equipment_2
 	upgrades = {
 	}
 	obsolete = yes
 }

 create_equipment_variant = {
 	name = "BT.5"
 	type = light_tank_equipment_2
 	upgrades = {
 		tank_gun_upgrade = 3
 		tank_engine_upgrade = 2
 		tank_armor_upgrade = 2
 		tank_reliability_upgrade = 3
 	}
 	obsolete = yes
 }

 create_equipment_variant = {
 	name = "BT.7"
 	type = light_tank_equipment_2
 	upgrades = {
 		tank_gun_upgrade = 4
 		tank_armor_upgrade = 3
 		tank_engine_upgrade = 3
 		tank_reliability_upgrade = 4
 	}
 }

 create_equipment_variant = {
 	name = "Sh-1"
 	type = CAS_equipment_1 
 	upgrades = {
 		plane_cas_upgrade = 3
 		plane_range_upgrade = 3
 		plane_engine_upgrade = 0
 		plane_reliability_upgrade = 0
 	}
 }
