sub_units = {

	light_tank_destroyer_brigade = {
		sprite = "light_armor"
		map_icon_category = armored
		priority = 1795
		ai_priority = 100
		active = yes
		
		type = {
			armor
			anti_tank
		}
		
		group = armor
		
		categories = {
			category_front_line
			category_all_armor
			category_army
			category_non_support			
		}

		combat_width = 2

		need = {
			light_tank_destroyer_equipment = 38
		}
		manpower = 500
		max_organisation = 0
		default_morale = 0.3
		max_strength = 0.6
		training_time = 180
		weight = 1
		supply_consumption = 0.29
		
		forest = {
		    attack = -0.1
			movement = -0.2
		}
		mountain = 	{
		    attack = -0.3
			defence = -0.15
			movement = -0.6
		}
		gibraltar = 	{
		    attack = -0.3
			defence = -0.15
			movement = -0.6
		}		
		jungle = {
		    attack = -0.1
			defence = -0.05 
			movement = -0.2
		}
		marsh = {
		    attack = -0.1 
			movement = -0.1
		}
		urban = {
			attack = -0.3
			defence = -0.1
		}
		river = { 
			attack = -0.2 
			movement = -0.2
		}
		amphibious = { 
			attack = -0.4
		}
		
		
		forest_africa = {
		    attack = -0.1
			movement = -0.2
		}
		mountain_africa = 	{
		    attack = -0.3
			defence = -0.15
			movement = -0.6
		}
		jungle_africa = {
		    attack = -0.1
			defence = -0.05 
			movement = -0.2
		}
		marsh_africa = {
		    attack = -0.1 
			movement = -0.1
		}
		urban_africa = {
			attack = -0.3
			defence = -0.1
		}		
	}
	
	medium_tank_destroyer_brigade = {
		sprite = "medium_armor"
		map_icon_category = armored
		priority = 1796
		ai_priority = 100
		active = yes
		
		type = {
			armor
			anti_tank
		}
		
		group = armor
		
		categories = {
			category_front_line
			category_all_armor
			category_army
			category_non_support			
		}


		combat_width = 2

		need = {
			medium_tank_destroyer_equipment = 32
		}
		manpower = 500
		max_organisation = 0
		default_morale = 0.3
		max_strength = 0.6
		training_time = 180
		weight = 1.25
		supply_consumption = 0.37
		
		forest = {
		    attack = -0.2
			movement = -0.2
		}
		hills = {
		    attack = -0.15
			defence = -0.1 
		}
		mountain = 	{
		    attack = -0.55
			defence = -0.35 
			movement = -0.8
		}
		gibraltar = 	{
		    attack = -0.55
			defence = -0.35 
			movement = -0.8
		}		
		jungle = {
		    attack = -0.3
			defence = -0.15 
			movement = -0.3
		}
		marsh = {
		    attack = -0.1 
			movement = -0.1
		}
		urban = {
			attack = -0.3
			defence = -0.1
		}
		river = { 
			attack = -0.2 
			movement = -0.2
		}
		amphibious = { 
			attack = -0.7
		}
		
		
		forest_africa = {
		    attack = -0.2
			movement = -0.2
		}
		hills_africa = {
		    attack = -0.15
			defence = -0.1 
		}
		mountain_africa = 	{
		    attack = -0.55
			defence = -0.35 
			movement = -0.8
		}
		jungle_africa = {
		    attack = -0.3
			defence = -0.15 
			movement = -0.3
		}
		marsh_africa = {
		    attack = -0.1 
			movement = -0.1
		}
		urban_africa = {
			attack = -0.3
			defence = -0.1
		}		
	}
	
	heavy_tank_destroyer_brigade = {
		sprite = "heavy_armor"
		map_icon_category = armored
		priority = 1797
		ai_priority = 100
		active = yes
		training_time = 180
		
		type = {
			armor
			anti_tank
		}
		
		group = armor
		
		categories = {
			category_front_line
			category_all_armor
			category_army
			category_non_support			
		}
		

		combat_width = 2

		need = {
			heavy_tank_destroyer_equipment = 25
		}
		manpower = 500
		max_organisation = 0
		default_morale = 0.3
		max_strength = 0.6
		weight = 1.5
		supply_consumption = 0.48
	
		forest = {
		    attack = -0.40
			movement = -0.40
		}
		hills = {
		    attack = -0.20
			defence = -0.1
		}
		mountain = 	{
		    attack = -0.9
			defence = -0.5 
			movement = -0.8
		}
		gibraltar = 	{
		    attack = -0.9
			defence = -0.5 
			movement = -0.8
		}		
		jungle = {
		    attack = -0.6
			defence = -0.2 
			movement = -0.4
		}
		marsh = {
		    attack = -0.4 
			movement = -0.2
		}
		urban = {
			attack = -0.5
			defence = -0.2
		}
		river = { 
			attack = -0.4 
			movement = -0.4
		}
		amphibious = { 
			attack = -0.8 
		}
		fort = {
			attack = 0.1
		}
		
		
		forest_africa = {
		    attack = -0.40
			movement = -0.40
		}
		hills_africa = {
		    attack = -0.20
			defence = -0.1
		}
		mountain_africa = 	{
		    attack = -0.9
			defence = -0.5 
			movement = -0.8
		}
		jungle_africa = {
		    attack = -0.6
			defence = -0.2 
			movement = -0.4
		}
		marsh_africa = {
		    attack = -0.4 
			movement = -0.2
		}
		urban_africa = {
			attack = -0.5
			defence = -0.2
		}		
	}
	
	super_heavy_tank_destroyer_brigade = {
		sprite = "heavy_armor"
		map_icon_category = armored
		priority = 1798
		ai_priority = 100
		active = yes
		
		type = {
			armor
			anti_tank
		}

		group = armor
		
		categories = {
			category_front_line
			category_all_armor
			category_army
			category_non_support			
		}

		combat_width = 2

		need = {
			super_heavy_tank_destroyer_equipment = 13
		}
		manpower = 500
		max_organisation = 0
		default_morale = 0.3
		max_strength = 0.6
		training_time = 180
		weight = 1.75
		supply_consumption = 0.56
		
		forest = {
		    attack = -0.5
			movement = -0.4
		}
		hills = {
		    attack = -0.3
			defence = -0.15	
		}
		mountain = 	{
		    attack = -0.9
			defence = -0.5 
			movement = -0.8 
		}
		gibraltar = 	{
		    attack = -0.9
			defence = -0.5 
			movement = -0.8 
		}		
		jungle = {
		    attack = -0.7
			movement = -0.4
		}
		marsh = {
		    attack = -0.5 
			movement = -0.2
		}
		urban = {
			attack = -0.6
			defence = -0.35
		}
		river = { 
			attack = -0.5
			movement = -0.5
		}
		amphibious = { 
			attack = -1.0
		}
		fort = {
			attack = 0.3
		}
		
		
		forest_africa = {
		    attack = -0.5
			movement = -0.4
		}
		hills_africa = {
		    attack = -0.3
			defence = -0.15	
		}
		mountain_africa = 	{
		    attack = -0.9
			defence = -0.5 
			movement = -0.8 
		}
		jungle_africa = {
		    attack = -0.7
			movement = -0.4
		}
		marsh_africa = {
		    attack = -0.5 
			movement = -0.2
		}
		urban_africa = {
			attack = -0.6
			defence = -0.35
		}		
	}
}
