
state={
	id=136
	name="STATE_136"
	manpower = 745466

	state_category = town
	resources={
		tungsten=6
	}

	history={
		owner = ENG
		buildings = {
			infrastructure = 5
			dockyard = 2
			industrial_complex = 4 	
			air_base = 10		
		}
		add_core_of = ENG
	}

	provinces={
		200 3150 6902 4048 3945 3851 3603
	}
}
