
state={
	id=158
	name="STATE_158"
	manpower = 4765476
	
	state_category = metropolis
	resources={
		steel=40
		aluminium=28
		chromium = 38
		tungsten = 4
	}

	history={
		owner = ITA
		victory_points = {
			6780 10 
		}
		buildings = {
			infrastructure = 8
			arms_factory = 6
			industrial_complex = 4
			air_base = 6
		}
		add_core_of = ITA
	}

	provinces={
		611 770 771 776 3782 6635 6780 5743 5740 2879 2731 2727 2725 2720
	}
}
