
state={
	id=169
	name="STATE_169"
	manpower = 3175163
	resources={
		tungsten=50 # was: 150
	}
	state_category = city

	history={
		owner = SPR
		victory_points = {
			7183 5 
		}
		buildings = {
			infrastructure = 6
			industrial_complex = 1
			anti_air_building = 5			
		}
		add_core_of = SPR
	}

	provinces={
		7183
	}
}
