
state={
	id=32
	name="STATE_32" 
	manpower = 1007500
	
	state_category = town
	
	resources={
		steel=30 # was: 56
		aluminium=30 # was: 58
	}

	history={
		owner = FRA
		buildings = {
			infrastructure = 4
			arms_factory = 3
		}
		victory_points = {
			3768 1 
		}
		add_core_of = FRA
	}

	provinces={
		762 780 3589 3768 6784 2741 
	}
}
