
state={
	id=47
	name="STATE_47" # Thessaly
	manpower=2312500
	resources={
		aluminium=58
		chromium = 30
	}
	
	state_category = city

	history={
		owner = GRE
		victory_points = {
			4109 3 
		}
		victory_points = {
			976 1 
		}		
		buildings = {
			infrastructure = 5
			arms_factory = 6
			industrial_complex = 5
			4109 = {
				naval_base = 9

			}

		}
		add_core_of = GRE

	}

	provinces={
		863 976 1109 3864 3973 3988 4109 6930 7127 
	}
}
