
state={
	id=64
	name="STATE_64"

	history={
		owner = GER
		victory_points = {
			6521 50 
		}
		buildings = {
			infrastructure = 8
			arms_factory = 5
			industrial_complex = 5
			anti_air_building = 2
			air_base = 10
			fuel_silo = 1
		}
		add_core_of = GER
	}

	provinces={
		375 3207 3367 6521 6114 460 456 455 450 
	}
	manpower=6265029
	buildings_max_level_factor=1.000
	state_category=megalopolis
}
