state={
	id=75
	name="STATE_75"
	manpower = 2598400
	resources={
		steel=4 # was: 6
		oil = 2 # was: 4
	}

	state_category = city

	history={
		owner = CZE
		victory_points = {
			3569 1 
		}
		buildings = {
			infrastructure = 7
			industrial_complex = 4
			air_base = 5

		}
		add_core_of = CZE
	}

	provinces={
		3553 3569 6562 6590 2937 
	}
}
