state=
{
	id=79
	name="STATE_79"
	manpower = 6711000
	
	resources = { steel = 20 }

	state_category = large_town
	
	history=
	{
		owner = ROM
		buildings = {
			infrastructure = 5
			industrial_complex = 1
			air_base = 10
fuel_silo = 1
		}
		victory_points = {
			5769 1 
		}
				victory_points = {
			6706 3 
		}
		add_core_of = ROM
	}
	provinces=
	{
723 744 3728 3741 6584 6706 6729 6747 6761 5781 5769 2915 2796 2794 2780 2767 	}
}
