
state={
	id=841
	name="STATE_841"

	history={
		owner = GER
		buildings = {
			infrastructure = 6
			fuel_silo = 1
			industrial_complex = 6			
		}
		add_core_of = GER

	}

	provinces={
		3438 6534 6595 5944
	}
	manpower=1
	buildings_max_level_factor=1.000
	state_category=large_city
}
